"OBJECTID","ID_0","ISO","NAME_0","ID_1","NAME_1","ID_2","NAME_2","HASC_2","CCN_2","CCA_2","TYPE_2","ENGTYPE_2","NL_NAME_2","VARNAME_2"
1,64,"DNK","Denmark",1,"Hovedstaden",1,"Albertslund","DK.HS.AB",NA,"","Kommune","Municipality","",""
2,64,"DNK","Denmark",1,"Hovedstaden",2,"Allerød","DK.HS.AL",NA,"","Kommune","Municipality","",""
3,64,"DNK","Denmark",1,"Hovedstaden",3,"Ballerup","DK.HS.BA",NA,"","Kommune","Municipality","",""
4,64,"DNK","Denmark",1,"Hovedstaden",4,"Bornholm","DK.HS.BO",NA,"","Kommune","Municipality","",""
5,64,"DNK","Denmark",1,"Hovedstaden",5,"Brøndby","DK.HS.BR",NA,"","Kommune","Municipality","",""
6,64,"DNK","Denmark",1,"Hovedstaden",6,"Christiansø","DK.HS.CH",NA,"","Kommune","Municipality","",""
7,64,"DNK","Denmark",1,"Hovedstaden",7,"Dragør","DK.HS.DR",NA,"","Kommune","Municipality","",""
8,64,"DNK","Denmark",1,"Hovedstaden",8,"Egedal","DK.HS.EG",NA,"","Kommune","Municipality","",""
9,64,"DNK","Denmark",1,"Hovedstaden",9,"Fredensborg","DK.HS.FN",NA,"","Kommune","Municipality","",""
10,64,"DNK","Denmark",1,"Hovedstaden",10,"Frederiksberg","DK.HS.FB",NA,"","Kommune","Municipality","",""
11,64,"DNK","Denmark",1,"Hovedstaden",11,"Frederikssund","DK.HS.FS",NA,"","Kommune","Municipality","",""
12,64,"DNK","Denmark",1,"Hovedstaden",12,"Furesø","DK.HS.FU",NA,"","Kommune","Municipality","",""
13,64,"DNK","Denmark",1,"Hovedstaden",13,"Gentofte","DK.HS.GE",NA,"","Kommune","Municipality","",""
14,64,"DNK","Denmark",1,"Hovedstaden",14,"Gladsaxe","DK.HS.GX",NA,"","Kommune","Municipality","",""
15,64,"DNK","Denmark",1,"Hovedstaden",15,"Glostrup","DK.HS.GP",NA,"","Kommune","Municipality","",""
16,64,"DNK","Denmark",1,"Hovedstaden",16,"Gribskov","DK.HS.GR",NA,"","Kommune","Municipality","",""
17,64,"DNK","Denmark",1,"Hovedstaden",17,"Høje Taastrup","DK.HS.HT",NA,"","Kommune","Municipality","",""
18,64,"DNK","Denmark",1,"Hovedstaden",18,"Hørsholm","DK.HS.HO",NA,"","Kommune","Municipality","",""
19,64,"DNK","Denmark",1,"Hovedstaden",19,"Halsnæs","DK.HS.FH",NA,"","Kommune","Municipality","","Frederiksværk-Hundested"
20,64,"DNK","Denmark",1,"Hovedstaden",20,"Helsingør","DK.HS.HG",NA,"","Kommune","Municipality","",""
21,64,"DNK","Denmark",1,"Hovedstaden",21,"Herlev","DK.HS.HV",NA,"","Kommune","Municipality","",""
22,64,"DNK","Denmark",1,"Hovedstaden",22,"Hillerød","DK.HS.HI",NA,"","Kommune","Municipality","",""
23,64,"DNK","Denmark",1,"Hovedstaden",23,"Hvidovre","DK.HS.HD",NA,"","Kommune","Municipality","",""
24,64,"DNK","Denmark",1,"Hovedstaden",24,"Ishøj","DK.HS.IS",NA,"","Kommune","Municipality","",""
25,64,"DNK","Denmark",1,"Hovedstaden",25,"København","DK.HS.KO",NA,"","Kommune","Municipality","",""
26,64,"DNK","Denmark",1,"Hovedstaden",26,"Lyngby-Taarbæk","DK.HS.LT",NA,"","Kommune","Municipality","",""
27,64,"DNK","Denmark",1,"Hovedstaden",27,"Rødovre","DK.HS.RO",NA,"","Kommune","Municipality","",""
28,64,"DNK","Denmark",1,"Hovedstaden",28,"Rudersdal","DK.HS.RU",NA,"","Kommune","Municipality","",""
29,64,"DNK","Denmark",1,"Hovedstaden",29,"Tårnby","DK.HS.TA",NA,"","Kommune","Municipality","",""
30,64,"DNK","Denmark",1,"Hovedstaden",30,"Vallensbæk","DK.HS.VA",NA,"","Kommune","Municipality","",""
31,64,"DNK","Denmark",2,"Midtjylland",31,"Århus","DK.MJ.AR",NA,"","Kommune","Municipality","",""
32,64,"DNK","Denmark",2,"Midtjylland",32,"Favrskov","DK.MJ.FA",NA,"","Kommune","Municipality","",""
33,64,"DNK","Denmark",2,"Midtjylland",33,"Hedensted","DK.MJ.HD",NA,"","Kommune","Municipality","",""
34,64,"DNK","Denmark",2,"Midtjylland",34,"Herning","DK.MJ.HG",NA,"","Kommune","Municipality","",""
35,64,"DNK","Denmark",2,"Midtjylland",35,"Holstebro","DK.MJ.HB",NA,"","Kommune","Municipality","",""
36,64,"DNK","Denmark",2,"Midtjylland",36,"Horsens","DK.MJ.HS",NA,"","Kommune","Municipality","",""
37,64,"DNK","Denmark",2,"Midtjylland",37,"Ikast-Brande","DK.MJ.IB",NA,"","Kommune","Municipality","",""
38,64,"DNK","Denmark",2,"Midtjylland",38,"Lemvig","DK.MJ.LE",NA,"","Kommune","Municipality","",""
39,64,"DNK","Denmark",2,"Midtjylland",39,"Norddjurs","DK.MJ.NO",NA,"","Kommune","Municipality","",""
40,64,"DNK","Denmark",2,"Midtjylland",40,"Odder","DK.MJ.OD",NA,"","Kommune","Municipality","",""
41,64,"DNK","Denmark",2,"Midtjylland",41,"Randers","DK.MJ.RA",NA,"","Kommune","Municipality","",""
42,64,"DNK","Denmark",2,"Midtjylland",42,"Ringkøbing-Skjern","DK.MJ.RS",NA,"","Kommune","Municipality","",""
43,64,"DNK","Denmark",2,"Midtjylland",43,"Samsø","DK.MJ.SA",NA,"","Kommune","Municipality","",""
44,64,"DNK","Denmark",2,"Midtjylland",44,"Silkeborg","DK.MJ.SI",NA,"","Kommune","Municipality","",""
45,64,"DNK","Denmark",2,"Midtjylland",45,"Skanderborg","DK.MJ.SD",NA,"","Kommune","Municipality","",""
46,64,"DNK","Denmark",2,"Midtjylland",46,"Skive","DK.MJ.SV",NA,"","Kommune","Municipality","",""
47,64,"DNK","Denmark",2,"Midtjylland",47,"Struer","DK.MJ.ST",NA,"","Kommune","Municipality","",""
48,64,"DNK","Denmark",2,"Midtjylland",48,"Syddjurs","DK.MJ.SY",NA,"","Kommune","Municipality","",""
49,64,"DNK","Denmark",2,"Midtjylland",49,"Viborg","DK.MJ.VI",NA,"","Kommune","Municipality","",""
50,64,"DNK","Denmark",3,"Nordjylland",50,"Aalborg","DK.ND.AA",NA,"","Kommune","Municipality","",""
51,64,"DNK","Denmark",3,"Nordjylland",51,"Brønderslev","DK.ND.BD",NA,"","Kommune","Municipality","",""
52,64,"DNK","Denmark",3,"Nordjylland",52,"Frederikshavn","DK.ND.FR",NA,"","Kommune","Municipality","",""
53,64,"DNK","Denmark",3,"Nordjylland",53,"Hjørring","DK.ND.HJ",NA,"","Kommune","Municipality","",""
54,64,"DNK","Denmark",3,"Nordjylland",54,"Jammerbugt","DK.ND.JA",NA,"","Kommune","Municipality","",""
55,64,"DNK","Denmark",3,"Nordjylland",55,"Læsø","DK.ND.LA",NA,"","Kommune","Municipality","",""
56,64,"DNK","Denmark",3,"Nordjylland",56,"Mariagerfjord","DK.ND.MF",NA,"","Kommune","Municipality","",""
57,64,"DNK","Denmark",3,"Nordjylland",57,"Morsø","DK.ND.MO",NA,"","Kommune","Municipality","",""
58,64,"DNK","Denmark",3,"Nordjylland",58,"Rebild","DK.ND.RE",NA,"","Kommune","Municipality","",""
59,64,"DNK","Denmark",3,"Nordjylland",59,"Thisted","DK.ND.TH",NA,"","Kommune","Municipality","",""
60,64,"DNK","Denmark",3,"Nordjylland",60,"Vesthimmerland","DK.ND.VE",NA,"","Kommune","Municipality","",""
61,64,"DNK","Denmark",4,"Sjælland",61,"Faxe","DK.SL.FA",NA,"","Kommune","Municipality","",""
62,64,"DNK","Denmark",4,"Sjælland",62,"Greve","DK.SL.GR",NA,"","Kommune","Municipality","",""
63,64,"DNK","Denmark",4,"Sjælland",63,"Guldborgsund","DK.SL.GU",NA,"","Kommune","Municipality","",""
64,64,"DNK","Denmark",4,"Sjælland",64,"Holbæk","DK.SL.HO",NA,"","Kommune","Municipality","",""
65,64,"DNK","Denmark",4,"Sjælland",65,"Køge","DK.SL.KO",NA,"","Kommune","Municipality","",""
66,64,"DNK","Denmark",4,"Sjælland",66,"Kalundborg","DK.SL.KA",NA,"","Kommune","Municipality","",""
67,64,"DNK","Denmark",4,"Sjælland",67,"Lejre","DK.SL.LE",NA,"","Kommune","Municipality","",""
68,64,"DNK","Denmark",4,"Sjælland",68,"Lolland","DK.SL.LO",NA,"","Kommune","Municipality","",""
69,64,"DNK","Denmark",4,"Sjælland",69,"Næstved","DK.SL.NA",NA,"","Kommune","Municipality","",""
70,64,"DNK","Denmark",4,"Sjælland",70,"Odsherred","DK.SL.OD",NA,"","Kommune","Municipality","",""
71,64,"DNK","Denmark",4,"Sjælland",71,"Ringsted","DK.SL.RI",NA,"","Kommune","Municipality","",""
72,64,"DNK","Denmark",4,"Sjælland",72,"Roskilde","DK.SL.RO",NA,"","Kommune","Municipality","",""
73,64,"DNK","Denmark",4,"Sjælland",73,"Slagelse","DK.SL.SL",NA,"","Kommune","Municipality","",""
74,64,"DNK","Denmark",4,"Sjælland",74,"Solrød","DK.SL.SD",NA,"","Kommune","Municipality","",""
75,64,"DNK","Denmark",4,"Sjælland",75,"Sorø","DK.SL.SO",NA,"","Kommune","Municipality","",""
76,64,"DNK","Denmark",4,"Sjælland",76,"Stevns","DK.SL.ST",NA,"","Kommune","Municipality","",""
77,64,"DNK","Denmark",4,"Sjælland",77,"Vordingborg","DK.SL.VO",NA,"","Kommune","Municipality","",""
78,64,"DNK","Denmark",5,"Syddanmark",78,"Ærø","DK.SD.AE",NA,"","Kommune","Municipality","",""
79,64,"DNK","Denmark",5,"Syddanmark",79,"Aabenraa","DK.SD.AA",NA,"","Kommune","Municipality","",""
80,64,"DNK","Denmark",5,"Syddanmark",80,"Assens","DK.SD.AS",NA,"","Kommune","Municipality","",""
81,64,"DNK","Denmark",5,"Syddanmark",81,"Billund","DK.SD.BI",NA,"","Kommune","Municipality","",""
82,64,"DNK","Denmark",5,"Syddanmark",82,"Esbjerg","DK.SD.ES",NA,"","Kommune","Municipality","",""
83,64,"DNK","Denmark",5,"Syddanmark",83,"Faaborg-Midtfyn","DK.SD.FM",NA,"","Kommune","Municipality","","Fåborg-Midtfyn"
84,64,"DNK","Denmark",5,"Syddanmark",84,"Fanø","DK.SD.FA",NA,"","Kommune","Municipality","",""
85,64,"DNK","Denmark",5,"Syddanmark",85,"Fredericia","DK.SD.FR",NA,"","Kommune","Municipality","",""
86,64,"DNK","Denmark",5,"Syddanmark",86,"Haderslev","DK.SD.HA",NA,"","Kommune","Municipality","",""
87,64,"DNK","Denmark",5,"Syddanmark",87,"Kerteminde","DK.SD.KE",NA,"","Kommune","Municipality","",""
88,64,"DNK","Denmark",5,"Syddanmark",88,"Kolding","DK.SD.KO",NA,"","Kommune","Municipality","",""
89,64,"DNK","Denmark",5,"Syddanmark",89,"Langeland","DK.SD.LA",NA,"","Kommune","Municipality","",""
90,64,"DNK","Denmark",5,"Syddanmark",90,"Middelfart","DK.SD.MI",NA,"","Kommune","Municipality","",""
91,64,"DNK","Denmark",5,"Syddanmark",91,"Nordfyns","DK.SD.BO",NA,"","Kommune","Municipality","","Bogense"
92,64,"DNK","Denmark",5,"Syddanmark",92,"Nyborg","DK.SD.NY",NA,"","Kommune","Municipality","",""
93,64,"DNK","Denmark",5,"Syddanmark",93,"Odense","DK.SD.OD",NA,"","Kommune","Municipality","",""
94,64,"DNK","Denmark",5,"Syddanmark",94,"Sønderborg","DK.SD.SO",NA,"","Kommune","Municipality","",""
95,64,"DNK","Denmark",5,"Syddanmark",95,"Svendborg","DK.SD.SV",NA,"","Kommune","Municipality","",""
96,64,"DNK","Denmark",5,"Syddanmark",96,"Tønder","DK.SD.TO",NA,"","Kommune","Municipality","",""
97,64,"DNK","Denmark",5,"Syddanmark",97,"Varde","DK.SD.VA",NA,"","Kommune","Municipality","",""
98,64,"DNK","Denmark",5,"Syddanmark",98,"Vejen","DK.SD.VN",NA,"","Kommune","Municipality","",""
99,64,"DNK","Denmark",5,"Syddanmark",99,"Vejle","DK.SD.VL",NA,"","Kommune","Municipality","",""
